{
  "development": {
    "username": "postgres",
    "password": "postgres",
    "database": "test_deploy_heroku",
    "host": "127.0.0.1",
    "dialect": "postgres"
  },
  "test": {
    "username": "root",
    "password": null,
    "database": "database_test",
    "host": "127.0.0.1",
    "dialect": "mysql",
    "operatorsAliases": false
  },
  "production": {
    "dialect": "postgres",
    "use_env_variable": "DATABASE_URL"
  }
}